//TODO(#3): asdf s dfs afsdf

//FIXME (3): asdf s dfs afsdf

//TODO(#3): asdf s dfs afsdf

//TODO(#3) asdf s dfs afsdf

//FIXME ( ): asdf s dfs afsdf

// FIXME #3

//TODO#because1234

// FIXME abc 3 ddd
// FIXME 3 ddd
